[
	{"country":"UG","name":"Opiyai","_id":226975,"coord":{"lon":33.616669,"lat":1.7}},
	{"country":"CN","_id":1818177,"coord":{"lon":101.706657,"lat":32.902191}},
	{"country":"HU","name":"Aba","_id":3056450,"coord":{"lon":18.521721,"lat":47.029072}},
	{"country":"NG","name":"Aba","_id":2353151,"coord":{"lon":7.36667,"lat":5.10658}},
	{"country":"MA","name":"Oulad Frej","_id":2548343,"coord":{"lon":-8.2274,"lat":32.95956}},
	{"name":"Figuig (Centre)","_id":2548851,"coord":{"lon":-1.22855,"lat":32.10891}},
	{"country":"LB","name":"Aaley","_id":280425,"coord":{"lon":35.599998,"lat":33.805279}},
	{"country":"TZ","name":"Kagera Region","_id":148679,"coord":{"lon":31.5,"lat":-2}},
	{"country":"TZ","name":"Bukoba","_id":160961},
	{"country":"ZM","name":"Copperbelt Province","_id":917524,"coord":{"lon":28,"lat":-13}},
	{"country":"ZM","name":"Livingstone","_id":910111,"coord":{"lat":-17.84194}},
	{"country":"ZM","name":"Mufulira","_id":905395,"coord":{"lon":28.240709,"lat":-12.54982}},
	{"country":"BJ","name":"Ouidah","_id":2392308,"coord":{"lon":2.08506,"lat":6.36307}},
	{"country":"GL","name":"Aasiaat","_id":3424901,"coord":{"lon":-52.869881}},
	{"country":"DE","name":"Aasbüttel","_id":6552159,"coord":{"lon":9.43333,"lat":54.0667}},
	{"country":"DE","name":"Aasbuttel","_id":2959908,"coord":{"lon":9.43333,"lat":54.066669}}
]
